…
# Train Models

## Tree

``` r
set.seed(123)
trialTrainIndex <- sample(1:nrow(dayData), size = 100)
trialTrain <- dayData[trialTrainIndex,]
trialTrain
```

    ## # A tibble: 100 x 17
    ##    instant dteday     season yr    mnth     hr holiday weekday workingday
    ##      <dbl> <date>     <fct>  <fct> <fct> <dbl> <fct>   <fct>        <dbl>
    ##  1   17363 2012-12-31 winter 2012  dec       7 no      Monday           1
    ##  2   15559 2012-10-15 fall   2012  oct      11 no      Monday           1
    ##  3    3658 2011-06-06 spring 2011  jun       7 no      Monday           1
    ##  4    1321 2011-02-28 winter 2011  feb       7 no      Monday           1
    ##  5   12870 2012-06-25 summer 2012  jun      10 no      Monday           1
    ##  6    8002 2011-12-05 fall   2011  dec       1 no      Monday           1
    ##  7    8687 2012-01-02 winter 2012  jan      18 yes     Monday           0
    ##  8    8846 2012-01-09 winter 2012  jan       9 no      Monday           1
    ##  9    7178 2011-10-31 fall   2011  oct      16 no      Monday           1
    ## 10    4661 2011-07-18 summer 2011  jul       2 no      Monday           1
    ## # ... with 90 more rows, and 8 more variables: weathersit <fct>, temp <dbl>,
    ## #   atemp <dbl>, hum <dbl>, windspeed <dbl>, casual <dbl>, registered <dbl>,
    ## #   cnt <dbl>

``` r
trialTestIndex <- sample(1:nrow(dayData), size = 50)
trialTest <- dayData[trialTestIndex,]
trialTest
```

    ## # A tibble: 50 x 17
    ##    instant dteday     season yr    mnth     hr holiday weekday workingday
    ##      <dbl> <date>     <fct>  <fct> <fct> <dbl> <fct>   <fct>        <dbl>
    ##  1   17374 2012-12-31 winter 2012  dec      18 no      Monday           1
    ##  2    7169 2011-10-31 fall   2011  oct       7 no      Monday           1
    ##  3    2162 2011-04-04 spring 2011  apr      22 no      Monday           1
    ##  4   13704 2012-07-30 summer 2012  jul       4 no      Monday           1
    ##  5    8840 2012-01-09 winter 2012  jan       3 no      Monday           1
    ##  6   12528 2012-06-11 spring 2012  jun       4 no      Monday           1
    ##  7    9515 2012-02-06 winter 2012  feb       9 no      Monday           1
    ##  8    6838 2011-10-17 fall   2011  oct      11 no      Monday           1
    ##  9   14555 2012-09-03 summer 2012  sep      15 yes     Monday           0
    ## 10    6839 2011-10-17 fall   2011  oct      12 no      Monday           1
    ## # ... with 40 more rows, and 8 more variables: weathersit <fct>, temp <dbl>,
    ## #   atemp <dbl>, hum <dbl>, windspeed <dbl>, casual <dbl>, registered <dbl>,
    ## #   cnt <dbl>
…
