…
# Train Models

## Tree

``` r
set.seed(123)
trialTrainIndex <- sample(1:nrow(dayData), size = 100)
trialTrain <- dayData[trialTrainIndex,]
trialTrain
```

    ## # A tibble: 100 x 17
    ##    instant dteday     season yr   
    ##      <dbl> <date>     <fct>  <fct>
    ##  1   17141 2012-12-21 winter 2012 
    ##  2   15647 2012-10-19 fall   2012 
    ##  3    3753 2011-06-10 spring 2011 
    ##  4    1419 2011-03-04 winter 2011 
    ##  5   12958 2012-06-29 summer 2012 
    ##  6    7951 2011-12-02 fall   2011 
    ##  7    8778 2012-01-06 winter 2012 
    ##  8    8936 2012-01-13 winter 2012 
    ##  9    7272 2011-11-04 fall   2011 
    ## 10    4756 2011-07-22 summer 2011 
    ## # ... with 90 more rows, and 13 more
    ## #   variables: mnth <fct>, hr <dbl>,
    ## #   holiday <fct>, weekday <fct>,
    ## #   workingday <dbl>,
    ## #   weathersit <fct>, temp <dbl>,
    ## #   atemp <dbl>, hum <dbl>,
    ## #   windspeed <dbl>, casual <dbl>,
    ## #   registered <dbl>, cnt <dbl>

``` r
trialTestIndex <- sample(1:nrow(dayData), size = 50)
trialTest <- dayData[trialTestIndex,]
trialTest
```

    ## # A tibble: 50 x 17
    ##    instant dteday     season yr   
    ##      <dbl> <date>     <fct>  <fct>
    ##  1   17294 2012-12-28 winter 2012 
    ##  2    7263 2011-11-04 fall   2011 
    ##  3    2258 2011-04-08 spring 2011 
    ##  4   13648 2012-07-27 summer 2012 
    ##  5    8787 2012-01-06 winter 2012 
    ##  6   12472 2012-06-08 spring 2012 
    ##  7    9605 2012-02-10 winter 2012 
    ##  8    6931 2011-10-21 fall   2011 
    ##  9   14643 2012-09-07 summer 2012 
    ## 10    6932 2011-10-21 fall   2011 
    ## # ... with 40 more rows, and 13 more
    ## #   variables: mnth <fct>, hr <dbl>,
    ## #   holiday <fct>, weekday <fct>,
    ## #   workingday <dbl>,
    ## #   weathersit <fct>, temp <dbl>,
    ## #   atemp <dbl>, hum <dbl>,
    ## #   windspeed <dbl>, casual <dbl>,
    ## #   registered <dbl>, cnt <dbl>
…
