…
Train Models

Tree

set.seed(123)
trialTrainIndex <- sample(1:nrow(dayData), size = 100)
trialTrain <- dayData[trialTrainIndex,]
trialTrain

## # A tibble: 100 x 17
##    instant dteday     season yr    mnth 
##      <dbl> <date>     <fct>  <fct> <fct>
##  1   17363 2012-12-31 winter 2012  dec  
##  2   15559 2012-10-15 fall   2012  oct  
##  3    3658 2011-06-06 spring 2011  jun  
##  4    1321 2011-02-28 winter 2011  feb  
##  5   12870 2012-06-25 summer 2012  jun  
##  6    8002 2011-12-05 fall   2011  dec  
##  7    8687 2012-01-02 winter 2012  jan  
##  8    8846 2012-01-09 winter 2012  jan  
##  9    7178 2011-10-31 fall   2011  oct  
## 10    4661 2011-07-18 summer 2011  jul  
## # ... with 90 more rows, and 12 more
## #   variables: hr <dbl>, holiday <fct>,
## #   weekday <fct>, workingday <dbl>,
## #   weathersit <fct>, temp <dbl>,
## #   atemp <dbl>, hum <dbl>,
## #   windspeed <dbl>, casual <dbl>,
## #   registered <dbl>, cnt <dbl>

trialTestIndex <- sample(1:nrow(dayData), size = 50)
trialTest <- dayData[trialTestIndex,]
trialTest

## # A tibble: 50 x 17
##    instant dteday     season yr    mnth 
##      <dbl> <date>     <fct>  <fct> <fct>
##  1   17374 2012-12-31 winter 2012  dec  
##  2    7169 2011-10-31 fall   2011  oct  
##  3    2162 2011-04-04 spring 2011  apr  
##  4   13704 2012-07-30 summer 2012  jul  
##  5    8840 2012-01-09 winter 2012  jan  
##  6   12528 2012-06-11 spring 2012  jun  
##  7    9515 2012-02-06 winter 2012  feb  
##  8    6838 2011-10-17 fall   2011  oct  
##  9   14555 2012-09-03 summer 2012  sep  
## 10    6839 2011-10-17 fall   2011  oct  
## # ... with 40 more rows, and 12 more
## #   variables: hr <dbl>, holiday <fct>,
## #   weekday <fct>, workingday <dbl>,
## #   weathersit <fct>, temp <dbl>,
## #   atemp <dbl>, hum <dbl>,
## #   windspeed <dbl>, casual <dbl>,
## #   registered <dbl>, cnt <dbl>
…
