…
# Train Models

## Tree

``` r
set.seed(123)
trialTrainIndex <- sample(1:nrow(dayData), size = 100)
trialTrain <- dayData[trialTrainIndex,]
trialTrain
```

    ## # A tibble: 100 x 17
    ##    instant dteday     season yr    mnth 
    ##      <dbl> <date>     <fct>  <fct> <fct>
    ##  1   16996 2012-12-15 fall   2012  dec  
    ##  2   17330 2012-12-29 winter 2012  dec  
    ##  3   15502 2012-10-13 fall   2012  oct  
    ##  4    3458 2011-05-28 spring 2011  may  
    ##  5    1273 2011-02-26 winter 2011  feb  
    ##  6   12813 2012-06-23 summer 2012  jun  
    ##  7    7807 2011-11-26 fall   2011  nov  
    ##  8    8634 2011-12-31 winter 2011  dec  
    ##  9    8792 2012-01-07 winter 2012  jan  
    ## 10    7127 2011-10-29 fall   2011  oct  
    ## # ... with 90 more rows, and 12 more
    ## #   variables: hr <dbl>, holiday <fct>,
    ## #   weekday <fct>, workingday <dbl>,
    ## #   weathersit <fct>, temp <dbl>,
    ## #   atemp <dbl>, hum <dbl>,
    ## #   windspeed <dbl>, casual <dbl>,
    ## #   registered <dbl>, cnt <dbl>

``` r
trialTestIndex <- sample(1:nrow(dayData), size = 50)
trialTest <- dayData[trialTestIndex,]
trialTest
```

    ## # A tibble: 50 x 17
    ##    instant dteday     season yr    mnth 
    ##      <dbl> <date>     <fct>  <fct> <fct>
    ##  1   15334 2012-10-06 fall   2012  oct  
    ##  2   17151 2012-12-22 winter 2012  dec  
    ##  3    7118 2011-10-29 fall   2011  oct  
    ##  4    2107 2011-04-02 spring 2011  apr  
    ##  5   13503 2012-07-21 summer 2012  jul  
    ##  6    8643 2011-12-31 winter 2011  dec  
    ##  7   12327 2012-06-02 spring 2012  jun  
    ##  8    9461 2012-02-04 winter 2012  feb  
    ##  9    6787 2011-10-15 fall   2011  oct  
    ## 10   14498 2012-09-01 summer 2012  sep  
    ## # ... with 40 more rows, and 12 more
    ## #   variables: hr <dbl>, holiday <fct>,
    ## #   weekday <fct>, workingday <dbl>,
    ## #   weathersit <fct>, temp <dbl>,
    ## #   atemp <dbl>, hum <dbl>,
    ## #   windspeed <dbl>, casual <dbl>,
    ## #   registered <dbl>, cnt <dbl>
…
