…
# Train Models

## Tree

``` r
set.seed(123)
trialTrainIndex <- sample(1:nrow(dayData), size = 100)
trialTrain <- dayData[trialTrainIndex,]
trialTrain
```

    ## # A tibble: 100 x 17
    ##    instant dteday     season yr   
    ##      <dbl> <date>     <fct>  <fct>
    ##  1   17174 2012-12-23 winter 2012 
    ##  2   15536 2012-10-14 fall   2012 
    ##  3    3633 2011-06-05 spring 2011 
    ##  4    1300 2011-02-27 winter 2011 
    ##  5   12847 2012-06-24 summer 2012 
    ##  6    7982 2011-12-04 fall   2011 
    ##  7    8667 2012-01-01 winter 2012 
    ##  8    8825 2012-01-08 winter 2012 
    ##  9    7159 2011-10-30 fall   2011 
    ## 10    4636 2011-07-17 summer 2011 
    ## # ... with 90 more rows, and 13 more
    ## #   variables: mnth <fct>, hr <dbl>,
    ## #   holiday <fct>, weekday <fct>,
    ## #   workingday <dbl>,
    ## #   weathersit <fct>, temp <dbl>,
    ## #   atemp <dbl>, hum <dbl>,
    ## #   windspeed <dbl>, casual <dbl>,
    ## #   registered <dbl>, cnt <dbl>

``` r
trialTestIndex <- sample(1:nrow(dayData), size = 50)
trialTest <- dayData[trialTestIndex,]
trialTest
```

    ## # A tibble: 50 x 17
    ##    instant dteday     season yr   
    ##      <dbl> <date>     <fct>  <fct>
    ##  1   17185 2012-12-23 winter 2012 
    ##  2    7150 2011-10-30 fall   2011 
    ##  3    2138 2011-04-03 spring 2011 
    ##  4   13681 2012-07-29 summer 2012 
    ##  5    8819 2012-01-08 winter 2012 
    ##  6   12505 2012-06-10 spring 2012 
    ##  7    9494 2012-02-05 winter 2012 
    ##  8    6819 2011-10-16 fall   2011 
    ##  9   14532 2012-09-02 summer 2012 
    ## 10    6820 2011-10-16 fall   2011 
    ## # ... with 40 more rows, and 13 more
    ## #   variables: mnth <fct>, hr <dbl>,
    ## #   holiday <fct>, weekday <fct>,
    ## #   workingday <dbl>,
    ## #   weathersit <fct>, temp <dbl>,
    ## #   atemp <dbl>, hum <dbl>,
    ## #   windspeed <dbl>, casual <dbl>,
    ## #   registered <dbl>, cnt <dbl>
…
