…
Train Models

Tree

set.seed(123)
trialTrainIndex <- sample(1:nrow(dayData), size = 100)
trialTrain <- dayData[trialTrainIndex,]
trialTrain

## # A tibble: 100 x 17
##    instant dteday     season yr   
##      <dbl> <date>     <fct>  <fct>
##  1   17275 2012-12-27 winter 2012 
##  2   15637 2012-10-18 fall   2012 
##  3    3742 2011-06-09 spring 2011 
##  4    1408 2011-03-03 winter 2011 
##  5   12948 2012-06-28 summer 2012 
##  6    8085 2011-12-08 fall   2011 
##  7    8911 2012-01-12 winter 2012 
##  8    8926 2012-01-12 winter 2012 
##  9    7406 2011-11-10 fall   2011 
## 10    4745 2011-07-21 summer 2011 
## # ... with 90 more rows, and 13 more
## #   variables: mnth <fct>, hr <dbl>,
## #   holiday <fct>, weekday <fct>,
## #   workingday <dbl>,
## #   weathersit <fct>, temp <dbl>,
## #   atemp <dbl>, hum <dbl>,
## #   windspeed <dbl>, casual <dbl>,
## #   registered <dbl>, cnt <dbl>

trialTestIndex <- sample(1:nrow(dayData), size = 50)
trialTest <- dayData[trialTestIndex,]
trialTest

## # A tibble: 50 x 17
##    instant dteday     season yr   
##      <dbl> <date>     <fct>  <fct>
##  1    7253 2011-11-03 fall   2011 
##  2    2390 2011-04-14 spring 2011 
##  3   13782 2012-08-02 summer 2012 
##  4    8920 2012-01-12 winter 2012 
##  5   12606 2012-06-14 spring 2012 
##  6    9595 2012-02-09 winter 2012 
##  7    6921 2011-10-20 fall   2011 
##  8   14633 2012-09-06 summer 2012 
##  9    7066 2011-10-27 fall   2011 
## 10    1074 2011-02-17 winter 2011 
## # ... with 40 more rows, and 13 more
## #   variables: mnth <fct>, hr <dbl>,
## #   holiday <fct>, weekday <fct>,
## #   workingday <dbl>,
## #   weathersit <fct>, temp <dbl>,
## #   atemp <dbl>, hum <dbl>,
## #   windspeed <dbl>, casual <dbl>,
## #   registered <dbl>, cnt <dbl>
…
