…
# Train Models

## Tree

``` r
set.seed(123)
trialTrainIndex <- sample(1:nrow(dayData), size = 100)
trialTrain <- dayData[trialTrainIndex,]
trialTrain
```

    ## # A tibble: 100 x 17
    ##    instant dteday     season yr   
    ##      <dbl> <date>     <fct>  <fct>
    ##  1   15595 2012-10-16 fall   2012 
    ##  2    3697 2011-06-07 spring 2011 
    ##  3    1506 2011-03-08 winter 2011 
    ##  4   12906 2012-06-26 summer 2012 
    ##  5    8040 2011-12-06 fall   2011 
    ##  6    8867 2012-01-10 winter 2012 
    ##  7    8882 2012-01-10 winter 2012 
    ##  8    7361 2011-11-08 fall   2011 
    ##  9    4700 2011-07-19 summer 2011 
    ## 10   11395 2012-04-24 spring 2012 
    ## # ... with 90 more rows, and 13 more
    ## #   variables: mnth <fct>, hr <dbl>,
    ## #   holiday <fct>, weekday <fct>,
    ## #   workingday <dbl>,
    ## #   weathersit <fct>, temp <dbl>,
    ## #   atemp <dbl>, hum <dbl>,
    ## #   windspeed <dbl>, casual <dbl>,
    ## #   registered <dbl>, cnt <dbl>

``` r
trialTestIndex <- sample(1:nrow(dayData), size = 50)
trialTest <- dayData[trialTestIndex,]
trialTest
```

    ## # A tibble: 50 x 17
    ##    instant dteday     season yr   
    ##      <dbl> <date>     <fct>  <fct>
    ##  1   13740 2012-07-31 summer 2012 
    ##  2    8876 2012-01-10 winter 2012 
    ##  3   12564 2012-06-12 spring 2012 
    ##  4    9552 2012-02-07 winter 2012 
    ##  5    7020 2011-10-25 fall   2011 
    ##  6   14735 2012-09-11 summer 2012 
    ##  7    7021 2011-10-25 fall   2011 
    ##  8    1026 2011-02-15 winter 2011 
    ##  9   12394 2012-06-05 spring 2012 
    ## 10   11208 2012-04-17 spring 2012 
    ## # ... with 40 more rows, and 13 more
    ## #   variables: mnth <fct>, hr <dbl>,
    ## #   holiday <fct>, weekday <fct>,
    ## #   workingday <dbl>,
    ## #   weathersit <fct>, temp <dbl>,
    ## #   atemp <dbl>, hum <dbl>,
    ## #   windspeed <dbl>, casual <dbl>,
    ## #   registered <dbl>, cnt <dbl>
…
