…
Train Models

Tree

set.seed(123)
trialTrainIndex <- sample(1:nrow(dayData), size = 100)
trialTrain <- dayData[trialTrainIndex,]
trialTrain

## # A tibble: 100 x 17
##    instant dteday     season yr    mnth 
##      <dbl> <date>     <fct>  <fct> <fct>
##  1   17247 2012-12-26 winter 2012  dec  
##  2   15611 2012-10-17 fall   2012  oct  
##  3    3713 2011-06-08 spring 2011  jun  
##  4    1379 2011-03-02 winter 2011  mar  
##  5   12922 2012-06-27 summer 2012  jun  
##  6    8056 2011-12-07 fall   2011  dec  
##  7    8740 2012-01-04 winter 2012  jan  
##  8    8898 2012-01-11 winter 2012  jan  
##  9    7233 2011-11-02 fall   2011  nov  
## 10    4716 2011-07-20 summer 2011  jul  
## # ... with 90 more rows, and 12 more
## #   variables: hr <dbl>, holiday <fct>,
## #   weekday <fct>, workingday <dbl>,
## #   weathersit <fct>, temp <dbl>,
## #   atemp <dbl>, hum <dbl>,
## #   windspeed <dbl>, casual <dbl>,
## #   registered <dbl>, cnt <dbl>

trialTestIndex <- sample(1:nrow(dayData), size = 50)
trialTest <- dayData[trialTestIndex,]
trialTest

## # A tibble: 50 x 17
##    instant dteday     season yr    mnth 
##      <dbl> <date>     <fct>  <fct> <fct>
##  1   17258 2012-12-26 winter 2012  dec  
##  2    7224 2011-11-02 fall   2011  nov  
##  3    2361 2011-04-13 spring 2011  apr  
##  4   13756 2012-08-01 summer 2012  aug  
##  5    8892 2012-01-11 winter 2012  jan  
##  6   12580 2012-06-13 spring 2012  jun  
##  7    9567 2012-02-08 winter 2012  feb  
##  8    6892 2011-10-19 fall   2011  oct  
##  9   14607 2012-09-05 summer 2012  sep  
## 10    6893 2011-10-19 fall   2011  oct  
## # ... with 40 more rows, and 12 more
## #   variables: hr <dbl>, holiday <fct>,
## #   weekday <fct>, workingday <dbl>,
## #   weathersit <fct>, temp <dbl>,
## #   atemp <dbl>, hum <dbl>,
## #   windspeed <dbl>, casual <dbl>,
## #   registered <dbl>, cnt <dbl>
…
