…
# Train Models

## Tree

``` r
set.seed(123)
trialTrainIndex <- sample(1:nrow(dayData), size = 100)
trialTrain <- dayData[trialTrainIndex,]
trialTrain
```

    ## # A tibble: 100 x 17
    ##    instant dteday     season yr   
    ##      <dbl> <date>     <fct>  <fct>
    ##  1   17247 2012-12-26 winter 2012 
    ##  2   15611 2012-10-17 fall   2012 
    ##  3    3713 2011-06-08 spring 2011 
    ##  4    1379 2011-03-02 winter 2011 
    ##  5   12922 2012-06-27 summer 2012 
    ##  6    8056 2011-12-07 fall   2011 
    ##  7    8740 2012-01-04 winter 2012 
    ##  8    8898 2012-01-11 winter 2012 
    ##  9    7233 2011-11-02 fall   2011 
    ## 10    4716 2011-07-20 summer 2011 
    ## # ... with 90 more rows, and 13 more
    ## #   variables: mnth <fct>, hr <dbl>,
    ## #   holiday <fct>, weekday <fct>,
    ## #   workingday <dbl>,
    ## #   weathersit <fct>, temp <dbl>,
    ## #   atemp <dbl>, hum <dbl>,
    ## #   windspeed <dbl>, casual <dbl>,
    ## #   registered <dbl>, cnt <dbl>

``` r
trialTestIndex <- sample(1:nrow(dayData), size = 50)
trialTest <- dayData[trialTestIndex,]
trialTest
```

    ## # A tibble: 50 x 17
    ##    instant dteday     season yr   
    ##      <dbl> <date>     <fct>  <fct>
    ##  1   17258 2012-12-26 winter 2012 
    ##  2    7224 2011-11-02 fall   2011 
    ##  3    2361 2011-04-13 spring 2011 
    ##  4   13756 2012-08-01 summer 2012 
    ##  5    8892 2012-01-11 winter 2012 
    ##  6   12580 2012-06-13 spring 2012 
    ##  7    9567 2012-02-08 winter 2012 
    ##  8    6892 2011-10-19 fall   2011 
    ##  9   14607 2012-09-05 summer 2012 
    ## 10    6893 2011-10-19 fall   2011 
    ## # ... with 40 more rows, and 13 more
    ## #   variables: mnth <fct>, hr <dbl>,
    ## #   holiday <fct>, weekday <fct>,
    ## #   workingday <dbl>,
    ## #   weathersit <fct>, temp <dbl>,
    ## #   atemp <dbl>, hum <dbl>,
    ## #   windspeed <dbl>, casual <dbl>,
    ## #   registered <dbl>, cnt <dbl>
…
